{
	"$schema": "http://json-schema.org/draft-07/schema#",
    "type": "object",
    "required": [
        "ad_description",
        "ad_external_id",
        "ad_title",
        "ad_url",
        "address",
        "bodyworktype",
        "city",
        "co2_emissions",
        "currency",
        "doors",
        "fuel",
        "insert_date",
        "km",
        "mark",
        "model",
        "name_cperson",
        "phone",
        "power",
        "price",
        "reference_id",
        "region",
        "registration_date",
        "seats",
        "seller_name",
        "seller_reference",
        "seller_type",
        "seller_url",
        "transmision",
        "updated_date",
        "vehicle_category",
        "vehicle_type",
        "warranty",
        "zip"
    ],
    "additionalProperties": true,
    "properties": {
        "_type": {},
        "_key": {}
    }
}