{
	"$schema": "http://json-schema.org/draft-07/schema#",
    "type": "object",
    "required": [
        "category_offer",
        "description_offer",
        "firstdate_offer",
        "id_company",
        "id_offer",
        "insert_date",
        "job_type_offer",
        "location_offer",
        "name_company",
        "original_offer",
        "rating_company",
        "salary_offer",
        "search_company",
        "sector_company",
        "source_offer",
        "title_offer",
        "url_offer",
        "web_company"
    ],
    "additionalProperties": false,
    "properties": {
        "_type": {},
        "_key": {}
    }
}